Create long annual tables from line listing data — ann_tab_long • hcaidcs
…
line_listing %>%
  filter(collection == "C. difficile") %>%
  ann_tab_long(dat = ., collection_var = collection,
    org_var = reporting_organisation_code,
    metric_var = prior_hc, period_var = fy_long)
#> # A tibble: 28 x 5
#>    organisation period                   metric       collection   count_cases
#>    <fct>        <chr>                    <chr>        <fct>              <dbl>
#>  1 W1A          April 2015 to March 2016 all_blank    C. difficile          11
#>  2 W1A          April 2015 to March 2016 coca         C. difficile           7
#>  3 W1A          April 2015 to March 2016 coha, ha     C. difficile           3
#>  4 W1A          April 2015 to March 2016 coia         C. difficile          10
#>  5 W1A          April 2015 to March 2016 hoha, ha     C. difficile           3
#>  6 W1A          April 2015 to March 2016 Total cases  C. difficile          36
#>  7 W1A          April 2015 to March 2016 unknown_3_mo C. difficile           2
#>  8 W1A          April 2016 to March 2017 all_blank    NA                     0
#>  9 W1A          April 2016 to March 2017 coca         C. difficile           2
#> 10 W1A          April 2016 to March 2017 coha, ha     C. difficile           1
#> # ... with 18 more rows
…
